tools/verilog/build/vcd/dump.vcd
$date
	Sat Nov 15 20:20:01 2025
$end
$version
	Icarus Verilog
$end
$timescale
	1ps
$end
$scope module alu_tb $end
$var wire 8 ! result [7:0] $end
$var wire 8 " flags [7:0] $end
$var reg 8 # Ain [7:0] $end
$var reg 8 $ Bin [7:0] $end
$var reg 1 % mode $end
$var reg 4 & operation [3:0] $end
$scope module dut $end
$var wire 8 ' Ain [7:0] $end
$var wire 8 ( Bin [7:0] $end
$var wire 8 ) flags [7:0] $end
$var wire 1 % mode $end
$var wire 4 * operation [3:0] $end
$var wire 8 + result [7:0] $end
$var reg 8 , flagsRegister [7:0] $end
$var reg 8 - resultRegister [7:0] $end
$var reg 9 . tempRegister [8:0] $end
$scope function handleFlags $end
$var reg 8 / Ain [7:0] $end
$var reg 8 0 Bin [7:0] $end
$var reg 8 1 result [7:0] $end
$var reg 8 2 temp [7:0] $end
$upscope $end
$upscope $end
$scope task run $end
$var reg 8 3 _A [7:0] $end
$var reg 8 4 _B [7:0] $end
$var reg 1 5 _mode $end
$var reg 4 6 _op [3:0] $end
$upscope $end
$upscope $end
$enddefinitions $end
#0
$dumpvars
b1 6
15
b11 4
b101 3
b0 2
b1000 1
b11 0
b101 /
b1000 .
b1000 -
b0 ,
b1000 +
b1 *
b0 )
b11 (
b101 '
b1 &
1%
b11 $
b101 #
b0 "
b1000 !
$end
#10000
b111 /
b1 0
b1 $
b1 (
b111 #
b111 '
b10 &
b10 *
b1 4
b111 3
b10 6
#20000
b1000 "
b1000 )
b1000 ,
b10000 /
b10 0
b1110 1
b1110 .
b1110 !
b1110 +
b1110 -
b10 $
b10 (
b10000 #
b10000 '
b11 &
b11 *
b10 4
b10000 3
b11 6
#30000
b1000 "
b1000 )
b1000 ,
b100 &
b100 *
b100 6
#40000
b10 "
b10 )
b10 ,
b10 2
b100 /
b11 0
b1100 1
b1100 !
b1100 +
b1100 -
b11 $
b11 (
b100 #
b100 '
b101 &
b101 *
b11 4
b100 3
b101 6
#50000
b10010 /
b110 1
b110 !
b110 +
b110 -
b10010 #
b10010 '
b110 &
b110 *
b10010 3
b110 6
#60000
b101 0
b11 1
b11 !
b11 +
b11 -
b101 $
b101 (
b111 &
b111 *
b101 4
b111 6
#70000
b10000000 "
b10000000 )
b10000000 ,
b10000000 2
b11110000 /
b0 0
b11111000 1
b11111000 !
b11111000 +
b11111000 -
b0 $
b0 (
b11110000 #
b11110000 '
b1000 &
b1000 *
b0 4
b11110000 3
b1000 6
#80000
b0 "
b0 )
b0 ,
b0 2
b1111 /
b10000 1
b10000 !
b10000 +
b10000 -
b1111 #
b1111 '
b1001 &
b1001 *
b1111 3
b1001 6
#90000
b10 "
b10 )
b10 ,
b10 2
b10000 /
b1111 1
b1111 !
b1111 +
b1111 -
b10000 #
b10000 '
b1010 &
b1010 *
b10000 3
b1010 6
#100000
b11 "
b11 )
b11 ,
b11 2
b1111 /
b11110000 0
b0 1
b0 !
b0 +
b0 -
b11110000 $
b11110000 (
b1111 #
b1111 '
b1 &
b1 *
0%
b11110000 4
b1111 3
b1 6
05
#110000
b10000010 "
b10000010 )
b10000010 ,
b10000010 2
b11111111 1
b11111111 !
b11111111 +
b11111111 -
b10 &
b10 *
b10 6
#120000
b10 "
b10 )
b10 ,
b10 2
b10101010 /
b0 0
b1010101 1
b1010101 !
b1010101 +
b1010101 -
b0 $
b0 (
b10101010 #
b10101010 '
b11 &
b11 *
b0 4
b10101010 3
b11 6
#130000
b1111 /
b110011 0
b111100 1
b111100 !
b111100 +
b111100 -
b110011 $
b110011 (
b1111 #
b1111 '
b100 &
b100 *
b110011 4
b1111 3
b100 6
#140000
b1010101 /
b0 0
b1010101 1
b1010101 !
b1010101 +
b1010101 -
b0 $
b0 (
b1010101 #
b1010101 '
b101 &
b101 *
b0 4
b1010101 3
b101 6
#150000
b10000010 "
b10000010 )
b10000010 ,
b10000010 2
b0 /
b10101010 0
b10101010 1
b10101010 !
b10101010 +
b10101010 -
b10101010 $
b10101010 (
b0 #
b0 '
b110 &
b110 *
b10101010 4
b0 3
b110 6
#160000
b10100010 "
b10100010 )
b10100010 ,
b10100010 2
b0 0
b11111111 1
b11111111 !
b11111111 +
b11111111 -
b0 $
b0 (
b111 &
b111 *
b0 4
b111 6
#170000
b0 "
b0 )
b0 ,
b0 2
b10000001 /
b10 1
b10 !
b10 +
b10 -
b10000001 #
b10000001 '
b1000 &
b1000 *
b10000001 3
b1000 6
#180000
b1000000 1
b1000000 !
b1000000 +
b1000000 -
b1001 &
b1001 *
b1001 6
#190000
b10 "
b10 )
b10 ,
b10 2
b10010110 /
b101101 1
b101101 !
b101101 +
b101101 -
b10010110 #
b10010110 '
b1010 &
b1010 *
b10010110 3
b1010 6
#200000
b1001011 1
b1001011 !
b1001011 +
b1001011 -
b1011 &
b1011 *
b1011 6
#210000
b11 "
b11 )
b11 ,
b11 2
b0 /
b0 1
b0 !
b0 +
b0 -
b0 #
b0 '
b1100 &
b1100 *
b0 3
b1100 6
